{
  "page": 1,
  "total_results": 10000,
  "total_pages": 500,
  "results": [
    {
      "original_name": "Dark",
      "genre_ids": [
        80,
        18,
        9648,
        10765
      ],
      "name": "Dark",
      "popularity": 329.836,
      "origin_country": [
        "DE"
      ],
      "vote_count": 2032,
      "first_air_date": "2017-12-01",
      "backdrop_path": "/3lBDg3i6nn5R2NKFCJ6oKyUo2j5.jpg",
      "original_language": "de",
      "id": 70523,
      "vote_average": 8.5,
      "overview": "A missing child causes four families to help each other for answers. What they could not imagine is that this mystery would be connected to innumerable other secrets of the small town.",
      "poster_path": "/apbrbWs8M9lyOpJYU5WXrpFbk1Z.jpg"
    },
    {
      "original_name": "Law & Order: Special Victims Unit",
      "genre_ids": [
        80,
        18
      ],
      "name": "Law & Order: Special Victims Unit",
      "popularity": 261.601,
      "origin_country": [
        "US"
      ],
      "vote_count": 1285,
      "first_air_date": "1999-09-20",
      "backdrop_path": "/cD9PxbrdWYgL7MUpD9eOYuiSe2P.jpg",
      "original_language": "en",
      "id": 2734,
      "vote_average": 7.1,
      "overview": "In the criminal justice system, sexually-based offenses are considered especially heinous. In New York City, the dedicated detectives who investigate these vicious felonies are members of an elite squad known as the Special Victims Unit. These are their stories.",
      "poster_path": "/6t6r1VGQTTQecN4V0sZeqsmdU9g.jpg"
    },
    {
      "original_name": "ポケモン",
      "genre_ids": [
        16,
        10759,
        10765
      ],
      "name": "Pokémon",
      "popularity": 162.004,
      "origin_country": [
        "JP"
      ],
      "vote_count": 340,
      "first_air_date": "1997-04-01",
      "backdrop_path": "/tvjCdVRkaaab2ezM9BctkAOXeyW.jpg",
      "original_language": "ja",
      "id": 60572,
      "vote_average": 6.7,
      "overview": "Join Ash Ketchum, accompanied by his partner Pikachu, as he travels through many regions, meets new friends and faces new challenges on his quest to become a Pokémon Master.",
      "poster_path": "/2AoqUTKKN4kjNe1K0kIPwiItHwv.jpg"
    },
    {
      "original_name": "The Flash",
      "genre_ids": [
        18,
        10765
      ],
      "name": "The Flash",
      "popularity": 182.818,
      "origin_country": [
        "US"
      ],
      "vote_count": 4856,
      "first_air_date": "2014-10-07",
      "backdrop_path": "/jC1KqsFx8ZyqJyQa2Ohi7xgL7XC.jpg",
      "original_language": "en",
      "id": 60735,
      "vote_average": 7.4,
      "overview": "After a particle accelerator causes a freak storm, CSI Investigator Barry Allen is struck by lightning and falls into a coma. Months later he awakens with the power of super speed, granting him the ability to move through Central City like an unseen guardian angel. Though initially excited by his newfound powers, Barry is shocked to discover he is not the only \"meta-human\" who was created in the wake of the accelerator explosion -- and not everyone is using their new powers for good. Barry partners with S.T.A.R. Labs and dedicates his life to protect the innocent. For now, only a few close friends and associates know that Barry is literally the fastest man alive, but it won't be long before the world learns what Barry Allen has become...The Flash.",
      "poster_path": "/wHa6KOJAoNTFLFtp7wguUJKSnju.jpg"
    },
    {
      "original_name": "Supernatural",
      "genre_ids": [
        18,
        9648,
        10765
      ],
      "name": "Supernatural",
      "popularity": 170.516,
      "origin_country": [
        "US"
      ],
      "vote_count": 3182,
      "first_air_date": "2005-09-13",
      "backdrop_path": "/nVRyd8hlg0ZLxBn9RaI7mUMQLnz.jpg",
      "original_language": "en",
      "id": 1622,
      "vote_average": 7.9,
      "overview": "When they were boys, Sam and Dean Winchester lost their mother to a mysterious and demonic supernatural force. Subsequently, their father raised them to be soldiers. He taught them about the paranormal evil that lives in the dark corners and on the back roads of America ... and he taught them how to kill it. Now, the Winchester brothers crisscross the country in their '67 Chevy Impala, battling every kind of supernatural threat they encounter along the way. ",
      "poster_path": "/KoYWXbnYuS3b0GyQPkbuexlVK9.jpg"
    },
    {
      "original_name": "The Simpsons",
      "genre_ids": [
        16,
        35
      ],
      "name": "The Simpsons",
      "popularity": 181.227,
      "origin_country": [
        "US"
      ],
      "vote_count": 3753,
      "first_air_date": "1989-12-17",
      "backdrop_path": "/adZ9ldSlkGfLfsHNbh37ZThCcgU.jpg",
      "original_language": "en",
      "id": 456,
      "vote_average": 7.5,
      "overview": "Set in Springfield, the average American town, the show focuses on the antics and everyday adventures of the Simpson family; Homer, Marge, Bart, Lisa and Maggie, as well as a virtual cast of thousands. Since the beginning, the series has been a pop culture icon, attracting hundreds of celebrities to guest star. The show has also made name for itself in its fearless satirical take on politics, media and American life in general.",
      "poster_path": "/qcr9bBY6MVeLzriKCmJOv1562uY.jpg"
    },
    {
      "original_name": "Friends",
      "id": 1668,
      "name": "Friends",
      "popularity": 187.534,
      "vote_count": 2654,
      "vote_average": 8.2,
      "first_air_date": "1994-09-22",
      "poster_path": "/bRJOwllemPbE4JTQ0TtcVu9efff.jpg",
      "genre_ids": [
        35,
        18
      ],
      "original_language": "en",
      "backdrop_path": "/l0qVZIpXtIo7km9u5Yqh0nKPOr5.jpg",
      "overview": "The misadventures of a group of friends as they navigate the pitfalls of work, life and love in Manhattan.",
      "origin_country": [
        "US"
      ]
    },
    {
      "original_name": "Family Guy",
      "genre_ids": [
        16,
        35
      ],
      "name": "Family Guy",
      "popularity": 162.533,
      "origin_country": [
        "US"
      ],
      "vote_count": 2093,
      "first_air_date": "1999-01-31",
      "backdrop_path": "/4oE4vT4q0AD2cX3wcMBVzCsME8G.jpg",
      "original_language": "en",
      "id": 1434,
      "vote_average": 6.7,
      "overview": "Sick, twisted, politically incorrect and Freakin' Sweet animated series featuring the adventures of the dysfunctional Griffin family. Bumbling Peter and long-suffering Lois have three kids. Stewie (a brilliant but sadistic baby bent on killing his mother and taking over the world), Meg (the oldest, and is the most unpopular girl in town) and Chris (the middle kid, he's not very bright but has a passion for movies). The final member of the family is Brian - a talking dog and much more than a pet, he keeps Stewie in check whilst sipping Martinis and sorting through his own life issues.",
      "poster_path": "/q3E71oY6qgAEiw6YZIHDlHSLwer.jpg"
    },
    {
      "original_name": "The 100",
      "genre_ids": [
        18,
        10759,
        10765
      ],
      "name": "The 100",
      "popularity": 125.525,
      "origin_country": [
        "US"
      ],
      "vote_count": 3218,
      "first_air_date": "2014-03-19",
      "backdrop_path": "/hTExot1sfn7dHZjGrk0Aiwpntxt.jpg",
      "original_language": "en",
      "id": 48866,
      "vote_average": 7.5,
      "overview": "100 years in the future, when the Earth has been abandoned due to radioactivity, the last surviving humans live on an ark orbiting the planet — but the ark won't last forever. So the repressive regime picks 100 expendable juvenile delinquents to send down to Earth to see if the planet is still habitable.",
      "poster_path": "/wcaDIAG1QdXQLRaj4vC1EFdBT2.jpg"
    },
    {
      "original_name": "NCIS",
      "genre_ids": [
        80,
        18,
        10759
      ],
      "name": "NCIS",
      "popularity": 125.445,
      "origin_country": [
        "US"
      ],
      "vote_count": 1036,
      "first_air_date": "2003-09-23",
      "backdrop_path": "/4VuCtYBvZGq6Rk3gloigwlsTefE.jpg",
      "original_language": "en",
      "id": 4614,
      "vote_average": 7,
      "overview": "From murder and espionage to terrorism and stolen submarines, a team of special agents investigates any crime that has a shred of evidence connected to Navy and Marine Corps personnel, regardless of rank or position.",
      "poster_path": "/fi8EvaWtL5CvoielOjjVvTr7ux3.jpg"
    },
    {
      "original_name": "Grey's Anatomy",
      "genre_ids": [
        18
      ],
      "name": "Grey's Anatomy",
      "popularity": 138.408,
      "origin_country": [
        "US"
      ],
      "vote_count": 2600,
      "first_air_date": "2005-03-27",
      "backdrop_path": "/edmk8xjGBsYVIf4QtLY9WMaMcXZ.jpg",
      "original_language": "en",
      "id": 1416,
      "vote_average": 7.7,
      "overview": "Follows the personal and professional lives of a group of doctors at Seattle’s Grey Sloan Memorial Hospital.",
      "poster_path": "/jnsvc7gCKocXnrTXF6p03cICTWb.jpg"
    },
    {
      "original_name": "Arrow",
      "genre_ids": [
        80,
        18,
        9648,
        10759
      ],
      "name": "Arrow",
      "popularity": 124.575,
      "origin_country": [
        "US"
      ],
      "vote_count": 3609,
      "first_air_date": "2012-10-10",
      "backdrop_path": "/fFT7T9y9NVRdcdVh81roVrJBcDh.jpg",
      "original_language": "en",
      "id": 1412,
      "vote_average": 6.2,
      "overview": "Spoiled billionaire playboy Oliver Queen is missing and presumed dead when his yacht is lost at sea. He returns five years later a changed man, determined to clean up the city as a hooded vigilante armed with a bow.",
      "poster_path": "/gKG5QGz5Ngf8fgWpBsWtlg5L2SF.jpg"
    },
    {
      "original_name": "Doctor Who",
      "genre_ids": [
        18,
        10759,
        10765
      ],
      "name": "Doctor Who",
      "popularity": 121.172,
      "origin_country": [
        "GB"
      ],
      "vote_count": 1713,
      "first_air_date": "2005-03-26",
      "backdrop_path": "/nfH8SZJVOxcBlFaqqtoqS5hHizG.jpg",
      "original_language": "en",
      "id": 57243,
      "vote_average": 7,
      "overview": "The Doctor is a Time Lord: a 900 year old alien with 2 hearts, part of a gifted civilization who mastered time travel. The Doctor saves planets for a living—more of a hobby actually, and the Doctor's very, very good at it.",
      "poster_path": "/cDDb7WA2i7cENhkEEjXEDrXGyNL.jpg"
    },
    {
      "original_name": "Breaking Bad",
      "genre_ids": [
        18
      ],
      "name": "Breaking Bad",
      "popularity": 104.68,
      "origin_country": [
        "US"
      ],
      "vote_count": 4904,
      "first_air_date": "2008-01-20",
      "backdrop_path": "/tsRy63Mu5cu8etL1X7ZLyf7UP1M.jpg",
      "original_language": "en",
      "id": 1396,
      "vote_average": 8.6,
      "overview": "When Walter White, a New Mexico chemistry teacher, is diagnosed with Stage III cancer and given a prognosis of only two years left to live. He becomes filled with a sense of fearlessness and an unrelenting desire to secure his family's financial future at any cost as he enters the dangerous world of drugs and crime.",
      "poster_path": "/ggFHVNu6YYI5L9pCfOacjizRGt.jpg"
    },
    {
      "original_name": "Marvel's Agents of S.H.I.E.L.D.",
      "genre_ids": [
        18,
        10759,
        10765
      ],
      "name": "Marvel's Agents of S.H.I.E.L.D.",
      "popularity": 114.704,
      "origin_country": [
        "US"
      ],
      "vote_count": 1760,
      "first_air_date": "2013-09-24",
      "backdrop_path": "/mUCV0W6TaAk8UWA5yAmqCywC63F.jpg",
      "original_language": "en",
      "id": 1403,
      "vote_average": 7.1,
      "overview": "Agent Phil Coulson of S.H.I.E.L.D. (Strategic Homeland Intervention, Enforcement and Logistics Division) puts together a team of agents to investigate the new, the strange and the unknown around the globe, protecting the ordinary from the extraordinary.",
      "poster_path": "/gHUCCMy1vvj58tzE3dZqeC9SXus.jpg"
    },
    {
      "original_name": "Doom Patrol",
      "genre_ids": [
        10759,
        10765
      ],
      "name": "Doom Patrol",
      "popularity": 89.724,
      "origin_country": [
        "US"
      ],
      "vote_count": 446,
      "first_air_date": "2019-02-15",
      "backdrop_path": "/rqHL4HsLCix9H6vhCwAuSOge0NS.jpg",
      "original_language": "en",
      "id": 79501,
      "vote_average": 7.2,
      "overview": "The Doom Patrol’s members each suffered horrible accidents that gave them superhuman abilities — but also left them scarred and disfigured. Traumatized and downtrodden, the team found purpose through The Chief, who brought them together to investigate the weirdest phenomena in existence — and to protect Earth from what they find.",
      "poster_path": "/drlfSCIlMKrEeMPhi8pqY4xGxj.jpg"
    },
    {
      "original_name": "The Blacklist",
      "genre_ids": [
        80,
        18,
        9648
      ],
      "name": "The Blacklist",
      "popularity": 116.158,
      "origin_country": [
        "US"
      ],
      "vote_count": 1483,
      "first_air_date": "2013-09-23",
      "backdrop_path": "/8b4X7cFOagllHuERcefvDpECwDz.jpg",
      "original_language": "en",
      "id": 46952,
      "vote_average": 7.2,
      "overview": "Raymond \"Red\" Reddington, one of the FBI's most wanted fugitives, surrenders in person at FBI Headquarters in Washington, D.C. He claims that he and the FBI have the same interests: bringing down dangerous criminals and terrorists. In the last two decades, he's made a list of criminals and terrorists that matter the most but the FBI cannot find because it does not know they exist. Reddington calls this \"The Blacklist\". Reddington will co-operate, but insists that he will speak only to Elizabeth Keen, a rookie FBI profiler.",
      "poster_path": "/bgbQCW4fE9b6wSOSC6Fb4FfVzsW.jpg"
    },
    {
      "original_name": "CSI: Crime Scene Investigation",
      "genre_ids": [
        80,
        18,
        9648
      ],
      "name": "CSI: Crime Scene Investigation",
      "popularity": 120.824,
      "origin_country": [
        "US"
      ],
      "vote_count": 429,
      "first_air_date": "2000-10-06",
      "backdrop_path": "/6MhOZyqG7fyAxuiYsyJ4WHO9Gk6.jpg",
      "original_language": "en",
      "id": 1431,
      "vote_average": 7.2,
      "overview": "A Las Vegas team of forensic investigators are trained to solve criminal cases by scouring the crime scene, collecting irrefutable evidence and finding the missing pieces that solve the mystery.",
      "poster_path": "/t6hnMaWMuX2brNL6Dq52dDLxZMt.jpg"
    },
    {
      "original_name": "Criminal Minds",
      "genre_ids": [
        80,
        18,
        9648
      ],
      "name": "Criminal Minds",
      "popularity": 95.902,
      "origin_country": [
        "US"
      ],
      "vote_count": 1210,
      "first_air_date": "2005-09-22",
      "backdrop_path": "/nWw20ipGipwdOyLTkFfX2Uz4Grp.jpg",
      "original_language": "en",
      "id": 4057,
      "vote_average": 7.8,
      "overview": "An elite team of FBI profilers analyze the country's most twisted criminal minds, anticipating their next moves before they strike again. The Behavioral Analysis Unit's most experienced agent is David Rossi, a founding member of the BAU who returns to help the team solve new cases.",
      "poster_path": "/7TCwgX7oQKxcWYEhSPRmaHe6ULN.jpg"
    },
    {
      "original_name": "Rick and Morty",
      "genre_ids": [
        16,
        35,
        10759,
        10765
      ],
      "name": "Rick and Morty",
      "popularity": 123.338,
      "origin_country": [
        "US"
      ],
      "vote_count": 2765,
      "first_air_date": "2013-12-02",
      "backdrop_path": "/eV3XnUul4UfIivz3kxgeIozeo50.jpg",
      "original_language": "en",
      "id": 60625,
      "vote_average": 8.7,
      "overview": "Rick is a mentally-unbalanced but scientifically-gifted old man who has recently reconnected with his family. He spends most of his time involving his young grandson Morty in dangerous, outlandish adventures throughout space and alternate universes. Compounded with Morty's already unstable family life, these events cause Morty much distress at home and school.",
      "poster_path": "/8kOWDBK6XlPUzckuHDo3wwVRFwt.jpg"
    }
  ]
}